{
    "development":{
        "username": "desarrollo",
        "password": "desarrollo",
        "database": "autob",
        "host": "127.0.0.1",
        "dialect":"mysql",
        "operatorAliases": false
    }
}